%YAML 1.1
%TAG !u! tag:unity3d.com,2011:
--- !u!114 &11400000
MonoBehaviour:
  m_ObjectHideFlags: 0
  m_CorrespondingSourceObject: {fileID: 0}
  m_PrefabInstance: {fileID: 0}
  m_PrefabAsset: {fileID: 0}
  m_GameObject: {fileID: 0}
  m_Enabled: 1
  m_EditorHideFlags: 0
  m_Script: {fileID: 11500000, guid: c856a1cbf0e1a4aaba0070a5b6db27e8, type: 3}
  m_Name: Smirk
  m_EditorClassIdentifier: 
  random:
  - (random)
  conversations:
    array:
    - id: convo_intro_to_boss_battles
      participants: 2
      lettersPerSecond: 15
      dialogue:
        array:
        - id: 0
          entry:
            m_TableReference:
              m_TableCollectionName: GUID:bbbf9cc2872194adb826a64b39111f56
            m_TableEntryReference:
              m_KeyId: 13098063749120
              m_Key: 
            m_FallbackState: 0
            m_WaitForCompletion: 0
            m_LocalVariables: []
          clip: {fileID: 8300000, guid: 2a244a7793dbe41b1ab487c889e7233f, type: 3}
        - id: 1
          entry:
            m_TableReference:
              m_TableCollectionName: GUID:bbbf9cc2872194adb826a64b39111f56
            m_TableEntryReference:
              m_KeyId: 40919226114048
              m_Key: 
            m_FallbackState: 0
            m_WaitForCompletion: 0
            m_LocalVariables: []
          clip: {fileID: 0}
        - id: 1
          entry:
            m_TableReference:
              m_TableCollectionName: GUID:bbbf9cc2872194adb826a64b39111f56
            m_TableEntryReference:
              m_KeyId: 40994203492352
              m_Key: 
            m_FallbackState: 0
            m_WaitForCompletion: 0
            m_LocalVariables: []
          clip: {fileID: 0}
  references:
    version: 1
