%YAML 1.1
%TAG !u! tag:unity3d.com,2011:
--- !u!114 &11400000
MonoBehaviour:
  m_ObjectHideFlags: 0
  m_CorrespondingSourceObject: {fileID: 0}
  m_PrefabInstance: {fileID: 0}
  m_PrefabAsset: {fileID: 0}
  m_GameObject: {fileID: 0}
  m_Enabled: 1
  m_EditorHideFlags: 0
  m_Script: {fileID: 11500000, guid: 23ac75a1263db4da3b5f0b33158e1caa, type: 3}
  m_Name: No Joke Mama
  m_EditorClassIdentifier: 
  OneShotClip: {fileID: 0}
  ConsideredDoneDuration: 0
  loop: {fileID: 8300000, guid: 5a58784c902824511ba1a43c1426adfa, type: 3}
  introDelay: 0
  Album: {fileID: 11400000, guid: 8982934e31a00436dbfa612adfaaca23, type: 2}
  TrackTitle: No Joke Mama
  OptionArtist: 
