%YAML 1.1
%TAG !u! tag:unity3d.com,2011:
--- !u!114 &1
MonoBehaviour:
  m_ObjectHideFlags: 53
  m_CorrespondingSourceObject: {fileID: 0}
  m_PrefabInstance: {fileID: 0}
  m_PrefabAsset: {fileID: 0}
  m_GameObject: {fileID: 0}
  m_Enabled: 1
  m_EditorHideFlags: 0
  m_Script: {fileID: 0}
  m_Name: 
  m_EditorClassIdentifier: Assembly-CSharp-Editor:ugh:UghSettings
  m_PrefabReplacements:
  - m_TypeName: SPAWN_POINT
    m_Prefab: {fileID: 4779747633076065989, guid: 52e956ddd60f248f7b5344d54c1ad914, type: 3}
